<?xml version="1.0" encoding="utf-8"?>
<!-- Generator: Adobe Illustrator 22.1.0, SVG Export Plug-In . SVG Version: 6.00 Build 0)  -->
<svg version="1.1" id="圖層_1" xmlns="http://www.w3.org/2000/svg" xmlns:xlink="http://www.w3.org/1999/xlink" x="0px" y="0px"
	 viewBox="0 0 121 113" style="enable-background:new 0 0 121 113;" xml:space="preserve">
<style type="text/css">
	.st0{fill:#4D4D4D;}
</style>
<g id="レイヤー_2_8_">
	<g id="レイヤー_1-2_8_">
		<path class="st0" d="M16.4,21v70.9h87.4V21H16.4z M98.3,85.6H22V27.2h76.3V85.6z M90,38.4H56.9v6.5H90V38.4z M90,53.1H56.9v6.5H90
			V53.1z M90,67.9H30.2v6.6H90V67.9z M40.8,46.9c3.6,0,6.4-2.9,6.4-6.4S44.4,34,40.8,34s-6.4,2.9-6.4,6.4
			C34.4,44,37.3,46.8,40.8,46.9z M48,54.9c-0.2-2.7-1.6-5.2-3.9-6.7l0,0h-6.4l0,0c-2.3,1.5-3.8,4-3.9,6.7v4.7h14.4L48,54.9z"/>
	</g>
</g>
</svg>
