<?xml version="1.0" encoding="utf-8"?>
<!-- Generator: Adobe Illustrator 22.1.0, SVG Export Plug-In . SVG Version: 6.00 Build 0)  -->
<svg version="1.1" id="圖層_1" xmlns="http://www.w3.org/2000/svg" xmlns:xlink="http://www.w3.org/1999/xlink" x="0px" y="0px"
	 viewBox="0 0 173 102" style="enable-background:new 0 0 173 102;" xml:space="preserve">
<path d="M138.1,29.1c-11.5-6.1-25.3-8-38.1-8.9c-15-1.1-30.6-0.3-44.9,4.4c-0.7,0.2-0.4,1.4,0.3,1.2C67,21.9,79.5,20.8,91.8,21
	c12.1,0.2,24.5,1.7,36.1,5.1c8.7,2.6,19.5,7.9,23,16.9c4.7,11.8-7.3,20.6-16.2,25.5C115.6,79,93.9,80.5,72.5,80.7
	c-8,0.1-16-0.2-24-1.4c-7.3-1.1-15-2.9-21.2-7.1c-8.3-5.7-9.1-15.2-6.4-24.4C24.2,36.1,34.3,28.7,43.8,22c0.6-0.5,0-1.5-0.6-1.1
	C34.6,27,25.4,33.6,21.1,43.6c-3.1,7.3-4.6,17.4,0.2,24.3C25.5,74,32.9,77,39.8,78.8c8.4,2.2,17.1,2.9,25.8,3.1
	c21.9,0.5,45.3-0.4,65.3-10c8.9-4.3,20.5-10.6,22.2-21.4C154.4,40.6,145.9,33.2,138.1,29.1z"/>
<g>
	<path d="M61.7,49l2.7,18.6l-1.7,0.2L60,49.6c-0.9,4.4-3.2,10.1-4.9,12.6l-0.8-0.6c1.6-3,4.3-10.5,4.8-16.2l-6.2,0.9L52.8,45
		l6.5-0.9l-1.1-7.6l1.7-0.2l1.1,7.6l5.3-0.8l0.2,1.2l-5.3,0.8l0.4,2.6c2.1,1.5,5,4.2,6.4,5.7l-1.2,1.3C65.3,52.9,63.1,50.5,61.7,49z
		 M82.9,41.9l-5.3,0.8l2.9,19.7c0.4,2.7-1.5,3.9-8.6,2.7l0.1-0.9c5.8,0.1,7-0.2,6.7-2.1l-2.4-16.3c-1.2,4.6-5.1,11.8-9.8,16L65.9,61
		c3.8-4,8.1-11.1,9.4-18l-8.2,1.2L67,43l8.8-1.3l-1.1-7.8l1.7-0.2l1.1,7.8l5.3-0.8L82.9,41.9z"/>
	<path d="M99.2,61.4l1.6,1.1c-4,2.1-8.9,3.5-13.1,4.1l-0.3-0.9C91.7,64.9,95.5,63.5,99.2,61.4z M88.3,50.5l-0.6-0.7
		c3-3.1,3.4-5.4,3.5-12.4l1.5,0.5c2.7-0.2,5.8-1,8.1-1.8l1.4,1.2c-3,0.7-6.4,1.2-9.3,1.4c0,0.9-0.1,1.8-0.1,2.5l9.9,0.1l0,1.2
		l-4.1-0.1l-0.1,5.2l-1.6,0l0.1-5.2l-4.4-0.1C92.2,46.3,90.9,48.3,88.3,50.5z M92.5,48.4l20,0.3l-0.2,12.8l-20-0.3L92.5,48.4z
		 M94.1,52.2l16.7,0.2l0-2.6l-16.7-0.2L94.1,52.2z M94,56l16.7,0.2l0-2.7L94,53.4L94,56z M94,60l16.7,0.2l0-2.8L94,57.2L94,60z
		 M104.2,37.4l1.5,0.5c2.6-0.2,5.8-0.9,7.9-1.7l1.4,1.2c-3,0.8-6.4,1.2-9.2,1.4c0,1-0.1,1.8-0.2,2.6l11.2,0.1l0,1.2l-5-0.1l-0.1,5.1
		l-1.6,0l0.1-5.1l-4.9-0.1c-0.6,2.6-1.9,4.1-4.3,5.4l-0.5-0.7C103.6,45.1,104.1,43.2,104.2,37.4z M116.9,65.3l-0.8,1.6
		c-3.1-1.3-8.5-3.2-12.1-4.4l0.2-0.9C107.8,62.4,113.4,63.9,116.9,65.3z"/>
</g>
</svg>
