<?xml version="1.0" encoding="utf-8"?>
<!-- Generator: Adobe Illustrator 22.1.0, SVG Export Plug-In . SVG Version: 6.00 Build 0)  -->
<svg version="1.1" id="圖層_1" xmlns="http://www.w3.org/2000/svg" xmlns:xlink="http://www.w3.org/1999/xlink" x="0px" y="0px"
	 viewBox="0 0 727 346" style="enable-background:new 0 0 727 346;" xml:space="preserve">
<style type="text/css">
	.st0{fill:#C0A580;}
	.st1{font-family:'ARJULIAN';}
	.st2{font-size:24px;}
	.st3{letter-spacing:1;}
	.st4{fill:#FFFFFF;}
	.st5{font-family:'jf-jinxuan-Medium-B5pc-H';}
	.st6{font-size:42.0923px;}
	.st7{letter-spacing:20.6;}
	.st8{fill:none;stroke:#888888;stroke-width:3;stroke-linecap:round;stroke-linejoin:round;stroke-miterlimit:10;}
	.st9{font-size:130px;}
	.st10{letter-spacing:39;}
</style>
<g>
	<g>
		<g>
			<text transform="matrix(1 0 0 1 280.1563 325.9863)"><tspan x="0" y="0" class="st0 st1 st2 st3">Which One</tspan><tspan x="130.2" y="0" class="st4 st1 st2 st3"> Suits You The Best</tspan></text>
		</g>
		<g>
			<text transform="matrix(0.97 0 0 1 59 252.0684)"><tspan x="0" y="0" class="st4 st5 st6 st7">尋找你人生的</tspan><tspan x="378.8" y="0" class="st0 st5 st6 st7">伴旅</tspan></text>
		</g>
	</g>
	<g>
		<g>
			<path class="st8" d="M136.6,159.6l-101.9-22c-5.9-1.3-9.6-7.1-8.4-13l22-101.9c1.3-5.9,7.1-9.6,13-8.4l101.9,22
				c5.9,1.3,9.6,7.1,8.4,13l-22,101.9C148.3,157.1,142.5,160.8,136.6,159.6z"/>
		</g>
		<text transform="matrix(1 0 0 1 111 134.7188)" class="st0 st1 st9 st10">.</text>
	</g>
	<g>
		<path class="st4" d="M254,132.2c-1.6,1.2-3.6,2.6-5.9,4.1c-2.4,1.6-5.1,3.3-8.3,5.1c-2.9,1.6-5.4,3-7.6,4.2c-2.2,1.2-4,2-5.5,2.6
			c-2.2,1-4.5,1.7-6.9,2.1c-2.4,0.4-4.9,0.7-7.5,0.7c-0.8,0-1.7-0.1-2.7-0.3c-1-0.2-2-0.5-3.1-0.8c-1.4-0.4-2.5-0.7-3.5-0.9
			c-1-0.3-1.7-0.4-2.4-0.5l-1-0.9l-2.3-0.3c-1-0.1-2.2-0.5-3.6-1.5c-1.4-0.9-2.9-2.2-4.6-3.9c-1.6-1.6-2.9-3-3.9-4.4
			c-1-1.4-1.7-2.7-2.1-3.8l-2.1-6.7c-0.7-2.3-1.3-4.1-1.7-5.5c-0.4-1.4-0.5-2.3-0.5-2.7l0.9-3.5c-0.4-1.2-0.8-2.2-1-2.9
			c-0.2-0.8-0.4-1.4-0.4-1.8c0-0.4,0.1-1.7,0.4-3.8c0.3-2.1,0.6-5.1,1.1-8.8c0.4-0.7,0.8-1.6,1.2-2.6c0.4-1,0.8-2.2,1.2-3.5
			l-0.2-1.7c0-0.4,0.1-0.9,0.3-1.4c0.2-0.5,0.4-1.2,0.8-1.8c1.2-2.5,2.4-5.1,3.7-7.7c1.2-2.6,2.4-5.1,3.7-7.5
			c1.1-1.9,2.4-3.8,4.1-5.7c1.7-2,3.6-4,5.8-6.1c0.5-0.5,1.1-1.2,1.7-2c0.7-0.8,1.5-1.7,2.5-2.7c0.9-0.5,2-1.3,3.3-2.4
			c1.3-1.1,2.8-2.4,4.6-4.1c0.5-0.2,1.2-0.5,1.9-0.9c0.7-0.4,1.6-0.8,2.7-1.3c0.3-0.2,0.6-0.4,1-0.8c0.4-0.4,0.9-0.7,1.4-1.2
			c0.6-0.5,2.7-1.3,6.4-2.3c3.7-1,6-1.6,7.2-1.6c2.4,0,4.5,0.2,6.2,0.5c1.7,0.3,3,0.9,4.1,1.6l2.5,0.5c2.1,0.5,3.7,2,4.7,4.7
			c1,2.7,1.5,6.6,1.5,11.6c0,2.4,0,4.3-0.1,5.7c-0.1,1.4-0.1,2.4-0.2,2.9c-0.3,1.6-0.7,3.5-1.1,5.9c-0.4,2.4-0.9,5.1-1.5,8.2
			c-0.1,0.8-0.4,2.2-1.1,4.1c-0.7,1.9-1.5,4.2-2.6,7c-1.1,3.1-2.1,5.4-2.9,6.9c-0.8,1.6-1.5,2.4-2,2.6c-2.1,0.5-4.4,1.1-6.8,1.7
			c-1.2,0-2-0.1-2.5-0.3c-0.5-0.2-0.7-0.5-0.7-0.9c0-0.4,0.1-0.9,0.3-1.7c0.2-0.8,0.3-1.3,0.3-1.6c-0.2-2-0.3-4-0.5-6
			c0-0.7,0.2-2.1,0.6-4.3c0.4-2.1,1.1-4.8,1.9-8.1c0.9-3.6,1.7-6.5,2.4-8.6c0.7-2.1,1.2-3.4,1.7-3.9c1.5-1.4,2.6-2.7,3.4-4
			c0.7-1.3,1.1-2.4,1.1-3.5c0-1.4-0.4-2.7-1.1-3.8c-0.7-1.1-1.8-1.9-3.2-2.5c-1.4-0.3-2.8-0.6-4.2-0.9c-1.4-0.3-2.8-0.6-4.2-1
			c-1.1,0.4-2.1,0.7-3,0.9c-0.9,0.2-1.6,0.4-2.3,0.5c-3.6,0.6-7,2.2-10.2,4.8c-3.3,2.6-6.4,6.3-9.3,10.9c-2.4,4-4.4,8.1-5.9,12.1
			c-1.5,4.1-2.5,8.1-3,12.2c-0.2,1.2-0.5,2.8-0.8,4.6c-0.3,1.8-0.8,4-1.4,6.5c0.5,1.6,0.9,3,1.3,4.3l-0.8,7.1c0,0.3,0.2,0.8,0.7,1.6
			s1.2,2,2.2,3.5c0.6,0.9,1.1,1.9,1.6,3.1c0.5,1.2,0.8,2.5,1.1,4c0.1,0.4,0.3,0.8,0.6,1.2c0.3,0.4,0.6,0.8,1,1
			c0.8,0.7,1.6,1.3,2.3,1.8c2.3,2.4,4.7,4.2,7.3,5.4c2.6,1.2,5.3,1.8,8.2,1.8c0.3,0,1.3-0.1,3-0.4c1.7-0.3,4.1-0.7,7.1-1.2
			c0.5-0.4,1.2-0.7,2.1-1.1c0.9-0.4,1.9-0.7,3.1-1.2c1.1-1,2.1-1.8,3.2-2.2c1.1-0.4,2-0.7,2.9-0.7c0.3-0.4,0.6-0.8,1-1.3
			c0.4-0.5,0.9-1.1,1.5-1.7c1.6-0.6,3-1.4,4.4-2.4c1.3-1,2.6-2.2,3.8-3.5C252.9,129.6,254,132,254,132.2z"/>
		<path class="st4" d="M250.7,125.1c0.4-0.4,0.8-0.8,1.2-1.4c0.4-0.6,0.9-1.3,1.4-2l6.1-4.1c0.7-0.9,1.9-2,3.4-3.4
			c1.5-1.4,3.4-3,5.7-5c0.3-0.6,0.7-1.2,1.3-2c0.6-0.7,1.3-1.5,2.2-2.2c0.7-0.7,1.5-1.3,2.2-1.9c0.7-0.6,1.4-1.2,2.1-1.7
			c0.8-0.8,1.5-1.6,2.3-2.3c0.7-0.8,1.4-1.5,2.2-2.2c0.8-0.7,1.7-1.3,2.6-1.7c0.9-0.4,1.9-0.6,2.9-0.6c1.2,0,2.1,0.1,2.7,0.4
			c0.6,0.3,0.9,0.7,1,1.2c-0.5,1.2-1.1,2.4-1.7,3.6l0.5,0.7c2.3-0.9,4.2-1.5,5.5-1.9c1.3-0.4,2.2-0.6,2.5-0.6c3.9,0,6.8,1.2,8.7,3.5
			c1.9,2.3,2.9,5.8,2.9,10.4c0,0.9-0.1,1.9-0.3,3.1c-0.2,1.2-0.6,2.5-1,3.9c-0.5,1.6-1.1,2.8-1.7,3.9c-0.6,1-1.2,1.8-1.7,2.2
			c0.2,0.7,0.4,1.2,0.7,1.4c0.3,0.3,0.6,0.4,1,0.4c0.4,0,0.9-0.1,1.3-0.4c0.4-0.3,1-0.6,1.6-1.2c0.5,1.1,1,2.3,1.5,3.5
			c0.5,1.2,1,2.4,1.5,3.6c-1,0.8-1.9,1.6-2.8,2.4c-0.9,0.8-1.9,1.5-2.9,2.2c-1.2,1-2.4,1.7-3.5,2.1c-1.1,0.4-2.2,0.7-3.2,0.7
			c-1.2,0-2.2-0.3-3-0.9c-0.8-0.6-1.4-1.4-1.9-2.4c-1.3,1.7-2.9,3.3-4.8,4.7c-1.9,1.4-4,2.6-6.2,3.5c-1.3,0.6-2.5,1.1-3.6,1.4
			c-1.1,0.3-2.1,0.5-3,0.5c-0.3,0-0.8,0.1-1.5,0.3c-0.8,0.2-1.4,0.3-1.9,0.3c-3,0-5.7-1.2-8.2-3.7c-2.4-2.5-3.7-5.2-3.7-8.3
			c0-1.2,0.3-2.9,0.9-4.9c0.6-2,0.9-3.2,0.9-3.6c0-0.4-0.1-0.7-0.4-0.9c-0.2-0.2-0.6-0.3-1-0.3c-0.3,0-0.9,0.4-1.9,1.2
			c-1,0.8-2.4,1.9-4.3,3.3c-0.2,0.2-0.3,0.5-0.6,0.9c-0.2,0.4-0.6,0.9-1,1.4c-0.4-1.2-0.9-2.4-1.4-3.6
			C252,127.4,251.4,126.2,250.7,125.1z M289,110.9c-0.3,0.1-0.6,0.3-1.2,0.8c-0.5,0.5-1,1.1-1.5,1.8c-0.7,1.2-1.6,2.5-2.5,3.9
			c-0.6,0.6-1.2,1.1-1.9,1.4c-0.7,0.3-1.4,0.6-2.3,0.7c-0.5,0.1-1.1,0.6-1.7,1.5c-0.6,1-1.2,2.3-1.7,4.2c-0.6,1.6-1,3-1.3,4.1
			c-0.3,1.1-0.4,2.1-0.4,2.9c0,1.4,0.4,2.5,1.1,3.3c0.7,0.7,1.9,1.1,3.4,1.1c2.4,0,4.7-0.7,6.7-2c2-1.3,4-3.3,5.8-5.9
			c0.8-1,1.6-1.9,2.4-2.8c0.4-0.3,0.8-0.8,1-1.5c0.3-0.7,0.5-1.6,0.8-2.6l1.4-4.4c-0.5-1.6-0.9-2.8-1.4-3.7
			c-0.4-0.9-0.8-1.5-1.3-1.7c-0.3-0.2-0.8-0.3-1.7-0.5C292,111.3,290.7,111.1,289,110.9z"/>
		<path class="st4" d="M308.2,125.1c0.2-0.4,0.5-0.8,0.8-1.2c0.3-0.4,0.8-1,1.2-1.6c0.5-0.4,1.2-1,2.1-1.8c0.8-0.8,1.8-1.7,2.9-2.7
			c1-1,2.1-2.3,3.5-3.8c1.4-1.5,3-3.4,5-5.5c0.8-0.9,1.9-2,3.2-3.4c1.3-1.4,2.8-3,4.5-4.9c1.5-1.7,3.1-3,4.8-3.8
			c1.7-0.8,3.5-1.2,5.4-1.2c1.9,0,3.3,0.6,4.2,1.7c0.9,1.2,1.4,2.9,1.4,5.1c0,1.2-0.5,3.5-1.4,6.8c-0.9,3.4-2.3,7.8-4.2,13.3
			c-0.5,1-0.9,2-1.4,2.9c-0.3,0.7-0.5,1.3-0.6,1.8c-0.1,0.5-0.2,0.9-0.2,1.2c0,0.3,0.2,0.7,0.6,1.2c0.3-0.2,0.5-0.4,0.8-0.6
			c0.2-0.3,0.5-0.6,0.8-0.9c0.4-0.8,1.1-1.6,1.9-2.4c0.9-0.9,1.9-1.8,3.1-2.8c0.5-0.9,1.1-1.7,1.9-2.6c0.8-0.9,1.6-1.6,2.6-2.4
			c0.2-0.2,0.5-0.5,0.8-1c0.3-0.5,0.8-1,1.2-1.5c0.7-0.7,1.5-1.4,2.5-2.1c1-0.7,2.1-1.5,3.3-2.2c1.4-0.7,2.7-1.3,3.9-1.7
			c1.1-0.4,2.1-0.6,3-0.6c1.6,0,3.1,0.4,4.4,1.2c1.3,0.8,2.4,2,3.3,3.6c1.1,3.2,2.1,6.2,3,8.9c0.6,1.6,1.2,2.8,1.9,3.6
			c0.7,0.8,1.5,1.2,2.4,1.2c0.7,0,1.3-0.1,1.9-0.4c0.6-0.3,1.1-0.6,1.5-1.2l3.2,7.1c-0.9,0.7-1.8,1.5-2.8,2.2
			c-1,0.8-1.9,1.5-2.8,2.2c-1.2,1.1-2.4,1.8-3.4,2.3c-1.1,0.4-2.1,0.7-3.2,0.7c-1.2,0-2.4-0.3-3.5-0.8s-2.1-1.3-2.9-2.3
			c-0.4-0.4-1-1.2-1.6-2.3c-0.6-1.1-1.4-2.5-2.2-4.2c-0.7-0.7-1.5-1.6-2.3-2.7c-0.9-1.1-1.9-2.4-3.1-3.9l-0.7-0.2
			c-1,0.3-2,0.8-3,1.4c-1,0.6-2,1.4-3.1,2.4c-2.4,2.1-4.1,3.4-5.2,3.9c-1.1,0.5-1.8,1.1-2.1,1.8c-0.7,1.2-2,2.8-3.8,4.8
			c-1.8,2-4,4.3-6.7,7c-0.7,0.7-1.4,1.3-2.1,2c-0.7,0.6-1.4,1.3-2.1,1.9c-0.7,0.6-1.5,1-2.3,1.2c-0.9,0.2-1.8,0.3-2.9,0.3
			c-2.1,0-3.3-0.7-3.5-2.1c-0.2-1.4-0.4-2.9-0.5-4.3c0.8-2.2,1.7-4.9,2.7-8.1s2.2-7.1,3.5-11.4c0-0.3,0.1-0.6,0.3-1
			c0.2-0.4,0.4-1,0.7-1.7c0.3-0.7,0.4-1.3,0.6-1.7c0.1-0.5,0.2-0.9,0.2-1.3c0-0.4-0.1-0.6-0.4-0.9c-0.3-0.2-0.7-0.3-1.3-0.3
			c-0.5,0-1.2,0.3-2.1,0.9c-0.9,0.6-1.9,1.6-3.1,2.9c-1.5,1.6-2.7,2.8-3.6,3.6c-0.9,0.9-1.5,1.4-1.8,1.6c-0.5,0.4-1.2,0.9-1.9,1.6
			c-0.7,0.7-1.5,1.4-2.4,2.2c-0.1,0.2-0.3,0.5-0.5,0.9c-0.2,0.4-0.6,0.9-1,1.4c-0.2-0.8-0.6-1.7-1.1-2.9
			C309.7,128.2,309.1,126.8,308.2,125.1z"/>
		<path class="st4" d="M384.2,125.1l0.3-0.6c0.3-0.4,0.7-0.9,1.2-1.6c0.5-0.6,1.1-1.3,1.8-2.2c3.8-3.4,7.4-7.5,11-12.2
			c3.6-4.7,7.1-10.2,10.6-16.3c0.4-0.6,0.9-1.3,1.4-2.2c0.5-0.9,1.1-2.1,1.7-3.5c0-0.3-0.1-0.5-0.2-0.7c-0.2-0.2-0.4-0.2-0.8-0.2
			c-0.3,0-0.8,0.1-1.5,0.3c-0.7,0.2-1.3,0.3-1.6,0.3h-9.9c-0.4,0-1.1,0-2.1-0.1c-1-0.1-1.7-0.1-2.1-0.1c-0.5-0.3-1-0.5-1.5-0.7
			c-0.5-0.2-0.9-0.4-1.3-0.6c-0.6-0.2-1.1-0.5-1.5-0.8c-0.3-0.3-0.5-0.7-0.5-1.2c0-3.3,0.4-5.8,1.1-7.6c0.7-1.8,1.8-2.6,3.3-2.6
			c1.5,0,2.9,0.1,4.2,0.2c1.3,0.1,2.5,0.3,3.5,0.5c0.8-0.2,1.5-0.3,2.2-0.5c1.4,0,2.6,0.1,3.7,0.2c1,0.1,1.8,0.2,2.3,0.4
			c0.7-0.2,1.4-0.3,2-0.4c0.7-0.1,1.4-0.3,2.2-0.4l2.6,0.8c1.9-0.2,3.8-2.7,5.9-7.6c2.1-4.9,4.3-7.3,6.7-7.3c1.3,0,2.3,0.4,2.9,1.2
			c0.7,0.8,1,1.9,1,3.4c0,1.2-0.4,2.8-1.1,4.7c-0.7,1.9-1.1,3.4-1.2,4.4c0.1,0.2,0.2,0.4,0.4,0.7c0.2,0.2,0.5,0.5,0.8,0.8
			c0.3,0.2,0.5,0.6,0.7,1c0.1,0.5,0.2,1.1,0.2,1.8c0,3.1-0.1,5.5-0.4,7.2c-0.3,1.7-0.8,2.5-1.4,2.6l-5.4,1.1
			c-0.1,0.5-0.2,1.2-0.4,1.9c-0.2,0.8-0.4,1.6-0.6,2.6c-0.9,2.6-1.9,5.9-3,9.9c-1.1,4-2.4,8.7-3.7,14.1c-0.9,4.3-1.5,7.9-2,10.6
			c-0.5,2.7-0.7,4.5-0.7,5.4c0,0.8,0.1,1.4,0.4,1.9c0.3,0.4,0.7,0.6,1.2,0.6c0.3,0,1.5-0.7,3.5-2.2c2-1.5,4.8-3.7,8.3-6.7l3.1,7.1
			c-0.5,0.6-1.3,1.2-2.2,2c-1,0.8-2.1,1.6-3.4,2.5c-0.5,0.6-1.2,1.2-2,1.9c-0.8,0.7-1.7,1.5-2.6,2.4c-1,1-1.9,2.1-2.8,3.1
			c-0.9,1-1.9,2-2.8,3c-1.3,1.3-2.5,2.3-3.7,2.9c-1.2,0.6-2.4,0.9-3.4,0.9c-2.3,0-4.1-0.7-5.2-2c-1.1-1.3-1.7-3.4-1.7-6.1
			c0-3,0.1-5.6,0.3-7.8c0.2-2.2,0.6-4,1-5.3c0.2-0.4,0.4-0.8,0.5-1.1c0-0.5,0.1-1.2,0.2-2.1c0.2-0.9,0.3-1.9,0.6-3.1
			c0.3-2,0.7-4,1-6.1c0.6-1.2,1.2-2.6,1.8-4c0-0.3-0.2-0.5-0.6-0.7l-0.8,0.5c-0.8,1.2-1.8,2.5-3.1,3.9c-1.3,1.4-2.8,2.8-4.5,4.3
			c-2.7,2.5-5.5,5.1-8.3,7.7c-0.2,0.3-0.5,0.6-0.9,1.2c-0.4,0.5-0.9,1.2-1.4,1.9c-0.3-0.6-0.6-1.4-1-2.4c-0.4-1-0.8-2.1-1.2-3.3
			c-0.1-0.3-0.2-0.6-0.4-0.9C384.6,125.5,384.4,125.3,384.2,125.1z"/>
		<path class="st4" d="M430.8,121.7l7.2-4.7c0.3-0.3,0.6-0.6,1-1c0.4-0.4,0.8-1.1,1.3-1.9c0.4-0.7,0.9-1.2,1.5-1.7
			c0.6-0.5,1.3-0.9,2.1-1.2c0.4-0.5,1-1.2,1.8-1.9c0.8-0.8,1.8-1.7,3-2.7c0.6-0.3,1.3-0.8,2.2-1.4c0.9-0.6,1.9-1.4,2.9-2.4
			c4.8-4.4,9-7.8,12.7-10c3.6-2.2,6.7-3.3,9.2-3.3c1.4,0,2.4,0.3,3.1,0.9c0.7,0.6,1,1.4,1,2.4c0,1.1-0.2,2-0.6,2.9
			c-0.4,0.8-1,1.5-1.9,2.1c-1.3,0.9-2.8,2-4.3,3.1c-0.8,1.1-1.9,2.2-3.1,3.5c-1.2,1.2-2.7,2.4-4.3,3.6c-0.5,0.7-1,1.3-1.4,1.8
			c-0.3,0.3-0.8,0.7-1.5,1.4c-0.7,0.7-1.7,1.4-2.9,2.3c-0.5,1.1-1.7,2.6-3.5,4.4c-1.8,1.8-4.1,4-7.1,6.5c-0.4,0.4-1,1.2-2,2.5
			c-1,1.3-2.2,3-3.7,5.1l0.6,0.7c1.2-0.4,2.4-1,3.7-1.9c1.3-0.9,2.7-2,4.2-3.5c1.8-1.6,3.3-2.9,4.4-3.9c1.1-1,1.9-1.7,2.4-2
			c0.4-0.2,0.7-0.4,1.1-0.6c0.4-0.2,0.8-0.5,1.3-0.8c2.4-2.8,4.7-5,6.8-6.3c2.1-1.4,4.1-2.1,5.9-2.1c1.1,0,2,0.4,2.5,1.3
			c0.6,0.9,0.9,2.1,1,3.8c-0.1,2.6-0.2,5.1-0.2,7.4c-0.1,1.7,0.4,3.1,1.4,4.5c1,1.3,2.3,2,3.9,2c0.5,0,0.9-0.1,1.4-0.4
			c0.4-0.3,0.9-0.6,1.4-1c0.4-0.5,0.7-0.9,1.1-1.3c0.3-0.4,0.7-0.8,1.1-1.2c0.2-0.1,0.5-0.3,0.9-0.5c0.4-0.3,0.8-0.6,1.2-0.9
			c0.7,1.6,1.4,2.9,1.9,4.1c0.5,1.2,0.9,2.2,1.2,3.1c-1.2,1.1-2.4,2.2-3.6,3.4c-1.2,1.2-2.5,2.3-3.8,3.3c-1.6,1.2-3.1,2.1-4.6,2.7
			c-1.5,0.6-3,0.9-4.5,0.9c-3.4,0-6.1-1-7.9-2.9c-1.9-1.9-2.9-4.8-3.3-8.7c0-0.5-0.1-0.9-0.2-1.4c-0.1-0.5-0.4-1-0.8-1.5
			c-0.3,0.3-0.6,0.5-0.9,0.8c-0.3,0.3-0.7,0.7-1.1,1.1c-0.7,0.5-1.5,1.2-2.6,1.9c-1,0.8-2.2,1.7-3.6,2.8c-1.9,1.9-3.4,3.4-4.7,4.6
			c-1.3,1.2-2.2,2-2.7,2.6c-1.1,0.9-2.3,1.8-3.7,2.6c-1.4,0.9-3,1.8-4.7,2.7c-1.1,0.6-2.1,1-2.9,1.4c-0.8,0.3-1.4,0.5-1.7,0.5
			c-2.5,0-4.4-0.6-5.6-1.8c-1.2-1.2-1.8-3.1-1.8-5.6c0-1.4,0.3-2.7,0.9-4c0.6-1.3,1.5-2.5,2.7-3.7c0.1-0.7,0.2-1.2,0.2-1.6
			c0-0.3-0.1-0.5-0.2-0.8c-0.1-0.3-0.3-0.6-0.5-1c-0.3-0.7-0.7-1.5-1.1-2.4c-0.4-0.9-0.8-1.9-1.3-2.9c0.2-0.2,0.5-0.6,0.9-1.2
			C429.8,123.3,430.2,122.6,430.8,121.7z"/>
		<path class="st4" d="M489.3,125.1l0.5-0.5l0.2-0.8c1.4-1.9,3.9-4.4,7.6-7.5c3.6-3.1,6.1-5.6,7.5-7.5c0.5-0.8,1.1-1.4,1.8-1.8
			c0.7-0.4,1.4-0.5,2.1-0.5c1.9,0,3.4,0.5,4.7,1.4c1.3,0.9,2.1,2.3,2.5,4.1c0.4,1.6,0.7,3.2,1,4.8c0.3,1.6,0.6,3.3,0.8,4.9
			c0.4,1,0.8,2.6,1.4,4.7c0.5,2.1,0.9,3.3,1.2,3.6c0.3,0.5,0.7,0.9,1.2,1.1s1.2,0.3,2,0.3c1,0,1.9-0.2,2.9-0.5c1-0.3,2-0.9,3.1-1.7
			c0.8-0.7,1.6-1.4,2.5-2.1c0.9-0.7,1.7-1.4,2.6-2.1l3.2,7.1c-0.8,0.8-2,1.8-3.4,2.8c-1.4,1.1-3.1,2.3-5,3.7c-2.2,1.6-4,2.7-5.6,3.5
			c-1.5,0.8-2.7,1.1-3.5,1.1c-4.8,0-7.9-0.5-9.4-1.6c-1.4-1.1-3-4.1-4.8-9.1c-0.2-0.4-0.5-0.9-1-1.5c-0.4-0.6-0.9-1.2-1.4-2
			c-0.6-1.2-1.2-2.1-1.7-2.7c-0.5-0.6-0.9-0.9-1.2-0.9c-0.8,0-2,0.6-3.4,1.7c-1.4,1.1-3.2,2.8-5.2,5c-0.3-0.7-0.6-1.5-1-2.4
			c-0.4-0.9-0.8-2-1.2-3.3c-0.1-0.3-0.2-0.6-0.4-0.9C489.7,125.5,489.5,125.3,489.3,125.1z M522.5,63.9c1.3,0,2.3,0.3,2.9,0.8
			c0.6,0.5,0.9,1.3,0.9,2.2c-0.3,1.4-0.6,2.7-0.8,3.6c-0.5,1.9-1,3.4-1.4,4.6c-0.4,1.2-0.7,2-0.9,2.6c-0.5,1.1-1.1,2.1-1.9,3
			c-0.8,0.9-1.8,1.6-3,2.3c-1.2,0.8-2.2,1.4-3.1,1.7c-0.8,0.3-1.4,0.5-1.7,0.4c-0.9-0.1-1.8-0.2-2.6-0.3c-0.8-0.1-1.6-0.1-2.4-0.1
			c-0.7-0.4-1.2-1.1-1.6-2.1c-0.4-1-0.6-2.4-0.6-4.2c0-1.6,1-3.5,2.9-5.9c1.9-2.4,3.6-3.6,5.1-3.8c0.9-1.1,2-2.3,3.2-3.7
			c0.5-0.4,1.2-0.7,2.1-0.9C520.5,64,521.4,63.9,522.5,63.9z"/>
		<path class="st4" d="M534.8,125.1c0.2-0.4,0.5-0.8,0.8-1.2c0.3-0.4,0.8-1,1.2-1.6c0.5-0.4,1.2-1,2.1-1.8c0.8-0.8,1.8-1.7,2.9-2.7
			c1-1,2.1-2.3,3.5-3.8c1.4-1.5,3-3.4,5-5.5c0.8-0.9,1.9-2,3.2-3.4c1.3-1.4,2.8-3,4.5-4.9c1.5-1.7,3.1-3,4.8-3.8
			c1.7-0.8,3.5-1.2,5.4-1.2c1.9,0,3.3,0.6,4.2,1.7c0.9,1.2,1.4,2.9,1.4,5.1c0,1.2-0.5,3.5-1.4,6.8c-0.9,3.4-2.3,7.8-4.2,13.3
			c-0.5,1-0.9,2-1.4,2.9c-0.3,0.7-0.5,1.3-0.6,1.8c-0.1,0.5-0.2,0.9-0.2,1.2c0,0.3,0.2,0.7,0.6,1.2c0.3-0.2,0.5-0.4,0.8-0.6
			c0.2-0.3,0.5-0.6,0.8-0.9c0.4-0.8,1.1-1.6,1.9-2.4c0.9-0.9,1.9-1.8,3.1-2.8c0.5-0.9,1.1-1.7,1.9-2.6c0.8-0.9,1.6-1.6,2.6-2.4
			c0.2-0.2,0.5-0.5,0.8-1c0.3-0.5,0.8-1,1.2-1.5c0.7-0.7,1.5-1.4,2.5-2.1c1-0.7,2.1-1.5,3.3-2.2c1.4-0.7,2.7-1.3,3.9-1.7
			c1.1-0.4,2.1-0.6,3-0.6c1.6,0,3.1,0.4,4.4,1.2c1.3,0.8,2.4,2,3.3,3.6c1.1,3.2,2.1,6.2,3,8.9c0.6,1.6,1.2,2.8,1.9,3.6
			c0.7,0.8,1.5,1.2,2.4,1.2c0.7,0,1.3-0.1,1.9-0.4c0.6-0.3,1.1-0.6,1.5-1.2l3.2,7.1c-0.9,0.7-1.8,1.5-2.8,2.2
			c-1,0.8-1.9,1.5-2.8,2.2c-1.2,1.1-2.4,1.8-3.4,2.3c-1.1,0.4-2.1,0.7-3.2,0.7c-1.2,0-2.4-0.3-3.5-0.8s-2.1-1.3-2.9-2.3
			c-0.4-0.4-1-1.2-1.6-2.3c-0.6-1.1-1.4-2.5-2.2-4.2c-0.7-0.7-1.5-1.6-2.3-2.7c-0.9-1.1-1.9-2.4-3.1-3.9l-0.7-0.2
			c-1,0.3-2,0.8-3,1.4c-1,0.6-2,1.4-3.1,2.4c-2.4,2.1-4.1,3.4-5.2,3.9c-1.1,0.5-1.8,1.1-2.1,1.8c-0.7,1.2-2,2.8-3.8,4.8
			c-1.8,2-4,4.3-6.7,7c-0.7,0.7-1.4,1.3-2.1,2c-0.7,0.6-1.4,1.3-2.1,1.9c-0.7,0.6-1.5,1-2.3,1.2c-0.9,0.2-1.8,0.3-2.9,0.3
			c-2.1,0-3.3-0.7-3.5-2.1c-0.2-1.4-0.4-2.9-0.5-4.3c0.8-2.2,1.7-4.9,2.7-8.1c1-3.3,2.2-7.1,3.5-11.4c0-0.3,0.1-0.6,0.3-1
			s0.4-1,0.7-1.7c0.3-0.7,0.4-1.3,0.5-1.7c0.1-0.5,0.2-0.9,0.2-1.3c0-0.4-0.1-0.6-0.4-0.9c-0.3-0.2-0.7-0.3-1.3-0.3
			c-0.5,0-1.2,0.3-2.1,0.9c-0.9,0.6-1.9,1.6-3.1,2.9c-1.5,1.6-2.7,2.8-3.6,3.6c-0.9,0.9-1.5,1.4-1.8,1.6c-0.5,0.4-1.2,0.9-1.9,1.6
			c-0.7,0.7-1.5,1.4-2.4,2.2c-0.1,0.2-0.3,0.5-0.5,0.9c-0.2,0.4-0.6,0.9-1,1.4c-0.2-0.8-0.6-1.7-1.1-2.9
			C536.3,128.2,535.6,126.8,534.8,125.1z"/>
		<path class="st4" d="M610.8,125.1c0.6-1.1,1.5-2.2,2.5-3.3c1-1.1,2.3-2.3,3.8-3.5c0.2-1,0.3-2.1,0.5-3.1c0.2-1,0.3-2,0.3-3.1
			c0.2-0.7,0.4-1.6,0.8-2.6c0.3-1,0.7-2,1.2-3.2c0.5-1.1,1.1-2.6,1.9-4.3s1.9-3.6,3.2-5.7c1.1-1.2,2.3-2.5,3.5-3.9
			c1.2-1.4,2.4-2.9,3.7-4.3c0.6-0.5,1.2-0.9,1.9-1.3c0.7-0.4,1.4-0.9,2.1-1.4c0.6-0.2,1.4-0.4,2.1-0.5c0.8-0.2,1.7-0.2,2.6-0.2
			c1.3,0,2.4,0.1,3.2,0.4c0.8,0.3,1.5,0.7,2,1.3c0.4,0.4,0.7,1,1.1,1.9c0.3,0.8,0.7,1.8,1,3c0.2,1,0.3,2.2,0.6,3.4
			c0-0.3-0.1-0.2-0.3,0.4c-0.2,0.6-0.5,1.5-0.8,2.7l-0.7,2.5c-0.7,2.5-2.4,5.4-5,8.6c-2.6,3.3-6.1,7-10.5,11.2
			c-0.4,0.4-0.7,0.8-1,1.4c-0.3,0.5-0.4,1.1-0.4,1.7c0,1.1,0.2,2,0.6,2.9c0.4,0.8,1,1.4,1.7,1.9c0.4,0.3,1.1,0.6,2,0.9
			c0.9,0.3,2,0.6,3.3,0.9c2.1-0.2,3.9-0.5,5.6-1c1.7-0.5,3.2-1.1,4.5-1.9c0.3-0.2,0.7-0.4,1.3-0.7c0.6-0.3,1.2-0.7,1.7-1.1
			c0.7,1.5,1.3,2.8,1.8,4c0.5,1.2,1,2.2,1.3,3.1c-3,2.9-5.8,5.1-8.2,6.6c-2.5,1.5-4.7,2.2-6.8,2.2c-0.8,0.5-1.8,0.9-2.9,1.1
			c-1.1,0.2-2.4,0.3-3.9,0.3c-2,0-3.7-0.3-5.2-0.9c-1.5-0.6-2.8-1.4-3.8-2.5c-0.5-0.5-1.1-1.3-1.6-2.3c-0.5-1-1.1-2.2-1.7-3.6
			c-0.5-1.1-0.9-2-1.4-2.5c-0.4-0.5-0.9-0.8-1.4-0.8c-0.4,0-0.9,0.2-1.4,0.6c-0.5,0.4-1.1,1-1.7,1.7c-0.2-0.8-0.6-1.7-1.1-2.9
			C612.3,128.2,611.6,126.8,610.8,125.1z M636.2,99.9c-1.2,0-2.7,1.5-4.7,4.5c-2,3-2.9,5.2-2.9,6.6c0,0.3,0.1,0.5,0.2,0.7
			c0.1,0.1,0.4,0.2,0.8,0.2c0.6,0,1.1-0.3,1.4-0.9c0.4-0.6,0.7-1.2,1-1.7c0.6-0.5,1.2-1.1,1.7-1.7c0.6-0.6,1.1-1.2,1.6-1.7
			c0.6-0.7,1.1-1.4,1.4-2.2c0.3-0.7,0.5-1.4,0.5-2.2c0-0.5-0.1-0.8-0.3-1.1C636.8,100,636.6,99.9,636.2,99.9z"/>
		<path class="st4" d="M650.7,125.1c0.8-1.1,1.7-2.2,2.5-3.4c3.9-3.1,7-6.1,9.5-9c2.5-2.9,4.3-5.5,5.4-8l-0.8-3.7
			c0.7-1.3,2.4-2.8,5.1-4.6c2.7-1.8,4.9-2.6,6.6-2.6c1.8,0,3.3,0.5,4.6,1.6c1.2,1,2.5,2.1,3.6,3.3c0.6,0.4,1,0.6,1.3,0.9
			c2.1,1.6,3.7,3.7,4.8,6.4c1.1,2.7,1.6,6.1,1.6,10c0,2.1-0.8,5-2.5,8.9c-1.6,3.9-2.5,6.8-2.5,8.7c0,0.3,0.1,0.5,0.3,0.6
			c0.2,0.2,0.4,0.2,0.8,0.2c0.7,0,1.5-0.3,2.5-0.9c1-0.6,2-1.4,3.1-2.4c2.8-2.7,4.5-4.2,5.1-4.5c0.6-0.3,1.3-0.8,2.1-1.4
			c0.4,1,0.9,2.1,1.5,3.3c0.6,1.2,1.1,2.5,1.7,3.8c-0.5,0.4-1,0.9-1.6,1.5c-0.6,0.6-1.3,1.2-2.2,1.9c-1.8,1.3-4.1,2.9-7,4.7
			c-2.9,1.8-6.3,3.9-10.4,6.3c-1.1,0.7-2.3,1.2-3.7,1.6c-2.2,0-3.9-0.3-5-1c-1.1-0.6-1.7-1.7-1.7-3.1c0-0.6,0.1-1.2,0.4-2
			c0.2-0.7,0.6-1.6,1-2.4c0.3-0.7,0.7-1.4,1-2.1c0.4-0.7,0.7-1.4,1-2.1c1.2-3.3,2.1-6.3,2.7-9.1c0.6-2.8,0.9-5.3,0.9-7.5
			c0-2.7-0.4-4.8-1.3-6.3c-0.9-1.4-2.2-2.3-3.9-2.5c-1.2,0.6-2.4,1.5-3.8,2.6c-1.4,1.1-2.8,2.6-4.2,4.3c-1.5,1.9-2.9,3.4-4.1,4.6
			c-1.2,1.2-2.2,2-3,2.4c-0.5,0.8-1.2,1.7-2.3,2.6c-1.1,1-2.5,2-4.2,3.2c-0.1,0.2-0.3,0.5-0.5,0.9c-0.2,0.4-0.6,0.9-1,1.4
			c-0.4-1.2-0.9-2.4-1.4-3.5C652,127.5,651.4,126.3,650.7,125.1z"/>
	</g>
</g>
</svg>
